lab4/mealy/lib2/scheme_test.vcd
$date
  Tue Nov 10 13:12:18 2020
$end
$version
  GHDL v0
$end
$timescale
  1 fs
$end
$var reg 1 ! clk $end
$var reg 1 " rst $end
$var reg 2 # x[1:2] $end
$var reg 3 $ y[1:3] $end
$scope module p1 $end
$var reg 1 % clk $end
$var reg 1 & rst $end
$var reg 2 ' x[1:2] $end
$var reg 3 ( y[1:3] $end
$comment state is not handled $end
$comment next_state is not handled $end
$var reg 2 ) statebin[1:2] $end
$upscope $end
$enddefinitions $end
#0
1!
1"
b00 #
b000 $
1%
1&
b00 '
b000 (
b00 )
#10000000
0!
0%
#20000000
1!
0"
b11 #
1%
0&
b11 '
b10 )
#30000000
0!
0%
#40000000
1!
b10 #
b001 $
1%
b10 '
b001 (
#50000000
0!
0%
#60000000
1!
b01 #
b000 $
1%
b01 '
b000 (
b00 )
#70000000
0!
0%
#80000000
1!
b00 #
1%
b00 '
b11 )
#90000000
0!
0%
#100000000
1!
b11 #
1%
b11 '
b00 )
#110000000
0!
0%
#120000000
1!
b10 #
1%
b10 '
#130000000
0!
0%
#140000000
1!
b01 #
b010 $
1%
b01 '
b010 (
b10 )
#150000000
0!
0%
#160000000
1!
b00 #
b000 $
1%
b00 '
b000 (
b11 )
