lab3/lib/test.vcd
$date
  Mon Nov 02 13:05:24 2020
$end
$version
  GHDL v0
$end
$timescale
  1 fs
$end
$var reg 4 ! x1[1:4] $end
$var reg 4 " x2[1:4] $end
$var reg 4 # x3[1:4] $end
$var reg 4 $ x4[1:4] $end
$var reg 3 % y1[1:3] $end
$var reg 3 & y2[1:3] $end
$var reg 3 ' y3[1:3] $end
$var reg 3 ( y4[1:3] $end
$var reg 2 ) p[0:1] $end
$var reg 16 * x_gen[1:16] $end
$var reg 12 + y_gen[1:12] $end
$var reg 2 , p_gen[0:1] $end
$var reg 3 - y1_gen_diag[1:3] $end
$var reg 3 . y2_gen_diag[1:3] $end
$var reg 3 / y3_gen_diag[1:3] $end
$var reg 3 0 y4_gen_diag[1:3] $end
$scope module portm1 $end
$var reg 4 1 x1[1:4] $end
$var reg 4 2 x2[1:4] $end
$var reg 4 3 x3[1:4] $end
$var reg 4 4 x4[1:4] $end
$var reg 3 5 y1[1:3] $end
$var reg 3 6 y2[1:3] $end
$var reg 3 7 y3[1:3] $end
$var reg 3 8 y4[1:3] $end
$var reg 2 9 p[0:1] $end
$var reg 3 : adder1_1_out[1:3] $end
$var reg 3 ; adder1_2_out[1:3] $end
$var reg 3 < adder1_3_out[1:3] $end
$var reg 3 = adder1_4_out[1:3] $end
$var reg 3 > adder2_1_out[1:3] $end
$var reg 3 ? adder2_2_out[1:3] $end
$var reg 3 @ adder2_3_out[1:3] $end
$var reg 3 A adder2_4_out[1:3] $end
$scope module adder1_1 $end
$var reg 1 B a2 $end
$var reg 1 C a1 $end
$var reg 2 D b[2:1] $end
$var reg 3 E p[3:1] $end
$var reg 1 F c1 $end
$scope module circ1 $end
$var reg 1 G a1 $end
$var reg 1 H b1 $end
$var reg 1 I c1 $end
$var reg 1 J p1 $end
$upscope $end
$scope module circ2 $end
$var reg 1 K c1 $end
$var reg 1 L a2 $end
$var reg 1 M b2 $end
$var reg 1 N p2 $end
$var reg 1 O p3 $end
$upscope $end
$upscope $end
$scope module adder1_2 $end
$var reg 1 P a2 $end
$var reg 1 Q a1 $end
$var reg 2 R b[2:1] $end
$var reg 3 S p[3:1] $end
$var reg 1 T c1 $end
$scope module circ1 $end
$var reg 1 U a1 $end
$var reg 1 V b1 $end
$var reg 1 W c1 $end
$var reg 1 X p1 $end
$upscope $end
$scope module circ2 $end
$var reg 1 Y c1 $end
$var reg 1 Z a2 $end
$var reg 1 [ b2 $end
$var reg 1 \ p2 $end
$var reg 1 ] p3 $end
$upscope $end
$upscope $end
$scope module adder1_3 $end
$var reg 1 ^ a2 $end
$var reg 1 _ a1 $end
$var reg 2 ` b[2:1] $end
$var reg 3 a p[3:1] $end
$var reg 1 b c1 $end
$scope module circ1 $end
$var reg 1 c a1 $end
$var reg 1 d b1 $end
$var reg 1 e c1 $end
$var reg 1 f p1 $end
$upscope $end
$scope module circ2 $end
$var reg 1 g c1 $end
$var reg 1 h a2 $end
$var reg 1 i b2 $end
$var reg 1 j p2 $end
$var reg 1 k p3 $end
$upscope $end
$upscope $end
$scope module adder1_4 $end
$var reg 1 l a2 $end
$var reg 1 m a1 $end
$var reg 2 n b[2:1] $end
$var reg 3 o p[3:1] $end
$var reg 1 p c1 $end
$scope module circ1 $end
$var reg 1 q a1 $end
$var reg 1 r b1 $end
$var reg 1 s c1 $end
$var reg 1 t p1 $end
$upscope $end
$scope module circ2 $end
$var reg 1 u c1 $end
$var reg 1 v a2 $end
$var reg 1 w b2 $end
$var reg 1 x p2 $end
$var reg 1 y p3 $end
$upscope $end
$upscope $end
$scope module adder2_1 $end
$var reg 1 z a2 $end
$var reg 1 { a1 $end
$var reg 1 | s $end
$var reg 3 } p[3:1] $end
$var reg 1 !" c1 $end
$scope module circ1 $end
$var reg 1 "" a1 $end
$var reg 1 #" b1 $end
$var reg 1 $" c1 $end
$var reg 1 %" p1 $end
$upscope $end
$scope module circ2 $end
$var reg 1 &" c1 $end
$var reg 1 '" a2 $end
$var reg 1 (" b2 $end
$var reg 1 )" p2 $end
$var reg 1 *" p3 $end
$upscope $end
$upscope $end
$scope module adder2_2 $end
$var reg 1 +" a2 $end
$var reg 1 ," a1 $end
$var reg 1 -" s $end
$var reg 3 ." p[3:1] $end
$var reg 1 /" c1 $end
$scope module circ1 $end
$var reg 1 0" a1 $end
$var reg 1 1" b1 $end
$var reg 1 2" c1 $end
$var reg 1 3" p1 $end
$upscope $end
$scope module circ2 $end
$var reg 1 4" c1 $end
$var reg 1 5" a2 $end
$var reg 1 6" b2 $end
$var reg 1 7" p2 $end
$var reg 1 8" p3 $end
$upscope $end
$upscope $end
$scope module adder2_3 $end
$var reg 1 9" a2 $end
$var reg 1 :" a1 $end
$var reg 1 ;" s $end
$var reg 3 <" p[3:1] $end
$var reg 1 =" c1 $end
$scope module circ1 $end
$var reg 1 >" a1 $end
$var reg 1 ?" b1 $end
$var reg 1 @" c1 $end
$var reg 1 A" p1 $end
$upscope $end
$scope module circ2 $end
$var reg 1 B" c1 $end
$var reg 1 C" a2 $end
$var reg 1 D" b2 $end
$var reg 1 E" p2 $end
$var reg 1 F" p3 $end
$upscope $end
$upscope $end
$scope module adder2_4 $end
$var reg 1 G" a2 $end
$var reg 1 H" a1 $end
$var reg 1 I" s $end
$var reg 3 J" p[3:1] $end
$var reg 1 K" c1 $end
$scope module circ1 $end
$var reg 1 L" a1 $end
$var reg 1 M" b1 $end
$var reg 1 N" c1 $end
$var reg 1 O" p1 $end
$upscope $end
$scope module circ2 $end
$var reg 1 P" c1 $end
$var reg 1 Q" a2 $end
$var reg 1 R" b2 $end
$var reg 1 S" p2 $end
$var reg 1 T" p3 $end
$upscope $end
$upscope $end
$upscope $end
$scope module portm2 $end
$var reg 16 U" x[1:16] $end
$var reg 12 V" y[1:12] $end
$var reg 2 W" p[0:1] $end
$var reg 12 X" adder1_out[1:12] $end
$var reg 12 Y" adder2_out[1:12] $end
$scope module (0) $end
$scope module B1 $end
$scope module u11 $end
$var reg 1 Z" a2 $end
$var reg 1 [" a1 $end
$var reg 2 \" b[2:1] $end
$var reg 3 ]" p[3:1] $end
$var reg 1 ^" c1 $end
$scope module circ1 $end
$var reg 1 _" a1 $end
$var reg 1 `" b1 $end
$var reg 1 a" c1 $end
$var reg 1 b" p1 $end
$upscope $end
$scope module circ2 $end
$var reg 1 c" c1 $end
$var reg 1 d" a2 $end
$var reg 1 e" b2 $end
$var reg 1 f" p2 $end
$var reg 1 g" p3 $end
$upscope $end
$upscope $end
$scope module u12 $end
$var reg 1 h" a2 $end
$var reg 1 i" a1 $end
$var reg 1 j" s $end
$var reg 3 k" p[3:1] $end
$var reg 1 l" c1 $end
$scope module circ1 $end
$var reg 1 m" a1 $end
$var reg 1 n" b1 $end
$var reg 1 o" c1 $end
$var reg 1 p" p1 $end
$upscope $end
$scope module circ2 $end
$var reg 1 q" c1 $end
$var reg 1 r" a2 $end
$var reg 1 s" b2 $end
$var reg 1 t" p2 $end
$var reg 1 u" p3 $end
$upscope $end
$upscope $end
$upscope $end
$upscope $end
$scope module (1) $end
$scope module B1 $end
$scope module u11 $end
$var reg 1 v" a2 $end
$var reg 1 w" a1 $end
$var reg 2 x" b[2:1] $end
$var reg 3 y" p[3:1] $end
$var reg 1 z" c1 $end
$scope module circ1 $end
$var reg 1 {" a1 $end
$var reg 1 |" b1 $end
$var reg 1 }" c1 $end
$var reg 1 !# p1 $end
$upscope $end
$scope module circ2 $end
$var reg 1 "# c1 $end
$var reg 1 ## a2 $end
$var reg 1 $# b2 $end
$var reg 1 %# p2 $end
$var reg 1 &# p3 $end
$upscope $end
$upscope $end
$scope module u12 $end
$var reg 1 '# a2 $end
$var reg 1 (# a1 $end
$var reg 1 )# s $end
$var reg 3 *# p[3:1] $end
$var reg 1 +# c1 $end
$scope module circ1 $end
$var reg 1 ,# a1 $end
$var reg 1 -# b1 $end
$var reg 1 .# c1 $end
$var reg 1 /# p1 $end
$upscope $end
$scope module circ2 $end
$var reg 1 0# c1 $end
$var reg 1 1# a2 $end
$var reg 1 2# b2 $end
$var reg 1 3# p2 $end
$var reg 1 4# p3 $end
$upscope $end
$upscope $end
$upscope $end
$upscope $end
$scope module (2) $end
$scope module B1 $end
$scope module u11 $end
$var reg 1 5# a2 $end
$var reg 1 6# a1 $end
$var reg 2 7# b[2:1] $end
$var reg 3 8# p[3:1] $end
$var reg 1 9# c1 $end
$scope module circ1 $end
$var reg 1 :# a1 $end
$var reg 1 ;# b1 $end
$var reg 1 <# c1 $end
$var reg 1 =# p1 $end
$upscope $end
$scope module circ2 $end
$var reg 1 ># c1 $end
$var reg 1 ?# a2 $end
$var reg 1 @# b2 $end
$var reg 1 A# p2 $end
$var reg 1 B# p3 $end
$upscope $end
$upscope $end
$scope module u12 $end
$var reg 1 C# a2 $end
$var reg 1 D# a1 $end
$var reg 1 E# s $end
$var reg 3 F# p[3:1] $end
$var reg 1 G# c1 $end
$scope module circ1 $end
$var reg 1 H# a1 $end
$var reg 1 I# b1 $end
$var reg 1 J# c1 $end
$var reg 1 K# p1 $end
$upscope $end
$scope module circ2 $end
$var reg 1 L# c1 $end
$var reg 1 M# a2 $end
$var reg 1 N# b2 $end
$var reg 1 O# p2 $end
$var reg 1 P# p3 $end
$upscope $end
$upscope $end
$upscope $end
$upscope $end
$scope module (3) $end
$scope module B1 $end
$scope module u11 $end
$var reg 1 Q# a2 $end
$var reg 1 R# a1 $end
$var reg 2 S# b[2:1] $end
$var reg 3 T# p[3:1] $end
$var reg 1 U# c1 $end
$scope module circ1 $end
$var reg 1 V# a1 $end
$var reg 1 W# b1 $end
$var reg 1 X# c1 $end
$var reg 1 Y# p1 $end
$upscope $end
$scope module circ2 $end
$var reg 1 Z# c1 $end
$var reg 1 [# a2 $end
$var reg 1 \# b2 $end
$var reg 1 ]# p2 $end
$var reg 1 ^# p3 $end
$upscope $end
$upscope $end
$scope module u12 $end
$var reg 1 _# a2 $end
$var reg 1 `# a1 $end
$var reg 1 a# s $end
$var reg 3 b# p[3:1] $end
$var reg 1 c# c1 $end
$scope module circ1 $end
$var reg 1 d# a1 $end
$var reg 1 e# b1 $end
$var reg 1 f# c1 $end
$var reg 1 g# p1 $end
$upscope $end
$scope module circ2 $end
$var reg 1 h# c1 $end
$var reg 1 i# a2 $end
$var reg 1 j# b2 $end
$var reg 1 k# p2 $end
$var reg 1 l# p3 $end
$upscope $end
$upscope $end
$upscope $end
$upscope $end
$upscope $end
$enddefinitions $end
#0
b0000 !
b0000 "
b0000 #
b0000 $
b000 %
b000 &
b000 '
b000 (
b00 )
b0000000000000000 *
b000000000000 +
b00 ,
b000 -
b000 .
b000 /
b000 0
b0000 1
b0000 2
b0000 3
b0000 4
b000 5
b000 6
b000 7
b000 8
b00 9
b000 :
b000 ;
b000 <
b000 =
b000 >
b000 ?
b000 @
b000 A
0B
0C
b00 D
b000 E
0F
0G
0H
0I
0J
0K
0L
0M
0N
0O
0P
0Q
b00 R
b000 S
0T
0U
0V
0W
0X
0Y
0Z
0[
0\
0]
0^
0_
b00 `
b000 a
0b
0c
0d
0e
0f
0g
0h
0i
0j
0k
0l
0m
b00 n
b000 o
0p
0q
0r
0s
0t
0u
0v
0w
0x
0y
0z
0{
0|
b000 }
0!"
0""
0#"
0$"
0%"
0&"
0'"
0("
0)"
0*"
0+"
0,"
0-"
b000 ."
0/"
00"
01"
02"
03"
04"
05"
06"
07"
08"
09"
0:"
0;"
b000 <"
0="
0>"
0?"
0@"
0A"
0B"
0C"
0D"
0E"
0F"
0G"
0H"
0I"
b000 J"
0K"
0L"
0M"
0N"
0O"
0P"
0Q"
0R"
0S"
0T"
b0000000000000000 U"
b000000000000 V"
b00 W"
b000000000000 X"
b000000000000 Y"
0Z"
0["
b00 \"
b000 ]"
0^"
0_"
0`"
0a"
0b"
0c"
0d"
0e"
0f"
0g"
0h"
0i"
0j"
b000 k"
0l"
0m"
0n"
0o"
0p"
0q"
0r"
0s"
0t"
0u"
0v"
0w"
b00 x"
b000 y"
0z"
0{"
0|"
0}"
0!#
0"#
0##
0$#
0%#
0&#
0'#
0(#
0)#
b000 *#
0+#
0,#
0-#
0.#
0/#
00#
01#
02#
03#
04#
05#
06#
b00 7#
b000 8#
09#
0:#
0;#
0<#
0=#
0>#
0?#
0@#
0A#
0B#
0C#
0D#
0E#
b000 F#
0G#
0H#
0I#
0J#
0K#
0L#
0M#
0N#
0O#
0P#
0Q#
0R#
b00 S#
b000 T#
0U#
0V#
0W#
0X#
0Y#
0Z#
0[#
0\#
0]#
0^#
0_#
0`#
0a#
b000 b#
0c#
0d#
0e#
0f#
0g#
0h#
0i#
0j#
0k#
0l#
#50000000
b1111 !
b101 %
b100 &
b1111000000000000 *
b101100000000 +
b101 -
b100 .
b1111 1
b101 5
b100 6
b101 :
b001 ;
b001 >
1B
b11 D
b101 E
1H
1J
1L
1M
1O
1Q
b001 S
1U
1X
1{
b001 }
1""
1%"
b1111000000000000 U"
b101100000000 V"
b101001000000 X"
b001000000000 Y"
1Z"
b11 \"
b101 ]"
1`"
1b"
1d"
1e"
1g"
1i"
b001 k"
1m"
1p"
1w"
b001 y"
1{"
1!#
#100000000
b0000 !
b1111 "
b000 %
b101 &
b100 '
b0000111100000000 *
b000101100000 +
b000 -
b101 .
b100 /
b0000 1
b1111 2
b000 5
b101 6
b100 7
b000 :
b101 ;
b001 <
b000 >
b001 ?
0B
b00 D
b000 E
0H
0J
0L
0M
0O
1P
0Q
b11 R
b101 S
0T
0U
1V
0W
1X
0Y
1Z
1[
0\
1]
1_
b001 a
1c
1f
0{
b000 }
0""
0%"
1,"
0-"
b001 ."
10"
13"
06"
07"
b0000111100000000 U"
b000101100000 V"
b000101001000 X"
b000001000000 Y"
0Z"
b00 \"
b000 ]"
0`"
0b"
0d"
0e"
0g"
0i"
b000 k"
0m"
0p"
1v"
0w"
b11 x"
b101 y"
0z"
0{"
1|"
0}"
1!#
0"#
1##
1$#
0%#
1&#
1(#
0)#
b001 *#
1,#
1/#
02#
03#
16#
b001 8#
1:#
1=#
#150000000
b1111 !
b101 %
b011 &
b1111111100000000 *
b101011100000 +
b101 -
b011 .
b1111 1
b101 5
b011 6
b101 :
b110 ;
b001 >
b011 ?
1B
b11 D
b101 E
1H
1J
1L
1M
1O
1Q
b110 S
1T
1U
1W
0X
1Y
1\
1{
b001 }
1""
1%"
1-"
b011 ."
16"
17"
b1111111100000000 U"
b101011100000 V"
b101110001000 X"
b001011000000 Y"
1Z"
b11 \"
b101 ]"
1`"
1b"
1d"
1e"
1g"
1i"
b001 k"
1m"
1p"
1w"
b110 y"
1z"
1{"
1}"
0!#
1"#
1%#
1)#
b011 *#
12#
13#
#200000000
b0000 !
b0000 "
b1111 #
b000 %
b000 &
b101 '
b100 (
b0000000011110000 *
b000000101100 +
b000 -
b000 .
b101 /
b100 0
b0000 1
b0000 2
b1111 3
b000 5
b000 6
b101 7
b100 8
b000 :
b000 ;
b101 <
b001 =
b000 >
b000 ?
b001 @
0B
b00 D
b000 E
0H
0J
0L
0M
0O
0P
0Q
b00 R
b000 S
0T
0U
0V
0W
0X
0Y
0Z
0[
0\
0]
1^
0_
b11 `
b101 a
0b
0c
1d
0e
1f
0g
1h
1i
0j
1k
1m
b001 o
1q
1t
0{
b000 }
0""
0%"
0,"
0-"
b000 ."
00"
03"
06"
07"
1:"
0;"
b001 <"
1>"
1A"
0D"
0E"
b0000000011110000 U"
b000000101100 V"
b000000101001 X"
b000000001000 Y"
0Z"
b00 \"
b000 ]"
0`"
0b"
0d"
0e"
0g"
0i"
b000 k"
0m"
0p"
0v"
0w"
b00 x"
b000 y"
0z"
0{"
0|"
0}"
0!#
0"#
0##
0$#
0%#
0&#
0(#
0)#
b000 *#
0,#
0/#
02#
03#
15#
06#
b11 7#
b101 8#
09#
0:#
1;#
0<#
1=#
0>#
1?#
1@#
0A#
1B#
1D#
0E#
b001 F#
1H#
1K#
0N#
0O#
1R#
b001 T#
1V#
1Y#
#250000000
b1111 !
b101 %
b100 &
b1111000011110000 *
b101100101100 +
b101 -
b100 .
b1111 1
b101 5
b100 6
b101 :
b001 ;
b001 >
1B
b11 D
b101 E
1H
1J
1L
1M
1O
1Q
b001 S
1U
1X
1{
b001 }
1""
1%"
b1111000011110000 U"
b101100101100 V"
b101001101001 X"
b001000001000 Y"
1Z"
b11 \"
b101 ]"
1`"
1b"
1d"
1e"
1g"
1i"
b001 k"
1m"
1p"
1w"
b001 y"
1{"
1!#
#300000000
b0000 !
b1111 "
b000 %
b101 &
b011 '
b0000111111110000 *
b000101011100 +
b000 -
b101 .
b011 /
b0000 1
b1111 2
b000 5
b101 6
b011 7
b000 :
b101 ;
b110 <
b000 >
b001 ?
b011 @
0B
b00 D
b000 E
0H
0J
0L
0M
0O
1P
0Q
b11 R
b101 S
0T
0U
1V
0W
1X
0Y
1Z
1[
0\
1]
1_
b110 a
1b
1c
1e
0f
1g
1j
0{
b000 }
0""
0%"
1,"
0-"
b001 ."
10"
13"
06"
07"
1;"
b011 <"
1D"
1E"
b0000111111110000 U"
b000101011100 V"
b000101110001 X"
b000001011000 Y"
0Z"
b00 \"
b000 ]"
0`"
0b"
0d"
0e"
0g"
0i"
b000 k"
0m"
0p"
1v"
0w"
b11 x"
b101 y"
0z"
0{"
1|"
0}"
1!#
0"#
1##
1$#
0%#
1&#
1(#
0)#
b001 *#
1,#
1/#
02#
03#
16#
b110 8#
19#
1:#
1<#
0=#
1>#
1A#
1E#
b011 F#
1N#
1O#
#350000000
b1111 !
b101 %
b011 &
b1111111111110000 *
b101011011100 +
b101 -
b011 .
b1111 1
b101 5
b011 6
b101 :
b110 ;
b001 >
b011 ?
1B
b11 D
b101 E
1H
1J
1L
1M
1O
1Q
b110 S
1T
1U
1W
0X
1Y
1\
1{
b001 }
1""
1%"
1-"
b011 ."
16"
17"
b1111111111110000 U"
b101011011100 V"
b101110110001 X"
b001011011000 Y"
1Z"
b11 \"
b101 ]"
1`"
1b"
1d"
1e"
1g"
1i"
b001 k"
1m"
1p"
1w"
b110 y"
1z"
1{"
1}"
0!#
1"#
1%#
1)#
b011 *#
12#
13#
#400000000
b0000 !
b0000 "
b0000 #
b1111 $
b000 %
b000 &
b000 '
b101 (
b10 )
b0000000000001111 *
b000000000101 +
b10 ,
b000 -
b000 .
b000 /
b101 0
b0000 1
b0000 2
b0000 3
b1111 4
b000 5
b000 6
b000 7
b101 8
b10 9
b000 :
b000 ;
b000 <
b101 =
b000 >
b000 ?
b000 @
b001 A
0B
b00 D
b000 E
0H
0J
0L
0M
0O
0P
0Q
b00 R
b000 S
0T
0U
0V
0W
0X
0Y
0Z
0[
0\
0]
0^
0_
b00 `
b000 a
0b
0c
0d
0e
0f
0g
0h
0i
0j
0k
1l
0m
b11 n
b101 o
0p
0q
1r
0s
1t
0u
1v
1w
0x
1y
0{
b000 }
0""
0%"
0,"
0-"
b000 ."
00"
03"
06"
07"
0:"
0;"
b000 <"
0>"
0A"
0D"
0E"
1H"
0I"
b001 J"
1L"
1O"
0R"
0S"
b0000000000001111 U"
b000000000101 V"
b10 W"
b000000000101 X"
b000000000001 Y"
0Z"
b00 \"
b000 ]"
0`"
0b"
0d"
0e"
0g"
0i"
b000 k"
0m"
0p"
0v"
0w"
b00 x"
b000 y"
0z"
0{"
0|"
0}"
0!#
0"#
0##
0$#
0%#
0&#
0(#
0)#
b000 *#
0,#
0/#
02#
03#
05#
06#
b00 7#
b000 8#
09#
0:#
0;#
0<#
0=#
0>#
0?#
0@#
0A#
0B#
0D#
0E#
b000 F#
0H#
0K#
0N#
0O#
1Q#
0R#
b11 S#
b101 T#
0U#
0V#
1W#
0X#
1Y#
0Z#
1[#
1\#
0]#
1^#
1`#
0a#
b001 b#
1d#
1g#
0j#
0k#
#450000000
b1111 !
b101 %
b100 &
b1111000000001111 *
b101100000101 +
b101 -
b100 .
b1111 1
b101 5
b100 6
b101 :
b001 ;
b001 >
1B
b11 D
b101 E
1H
1J
1L
1M
1O
1Q
b001 S
1U
1X
1{
b001 }
1""
1%"
b1111000000001111 U"
b101100000101 V"
b101001000101 X"
b001000000001 Y"
1Z"
b11 \"
b101 ]"
1`"
1b"
1d"
1e"
1g"
1i"
b001 k"
1m"
1p"
1w"
b001 y"
1{"
1!#
#500000000
b0000 !
b1111 "
b000 %
b101 &
b100 '
b0000111100001111 *
b000101100101 +
b000 -
b101 .
b100 /
b0000 1
b1111 2
b000 5
b101 6
b100 7
b000 :
b101 ;
b001 <
b000 >
b001 ?
0B
b00 D
b000 E
0H
0J
0L
0M
0O
1P
0Q
b11 R
b101 S
0T
0U
1V
0W
1X
0Y
1Z
1[
0\
1]
1_
b001 a
1c
1f
0{
b000 }
0""
0%"
1,"
0-"
b001 ."
10"
13"
06"
07"
b0000111100001111 U"
b000101100101 V"
b000101001101 X"
b000001000001 Y"
0Z"
b00 \"
b000 ]"
0`"
0b"
0d"
0e"
0g"
0i"
b000 k"
0m"
0p"
1v"
0w"
b11 x"
b101 y"
0z"
0{"
1|"
0}"
1!#
0"#
1##
1$#
0%#
1&#
1(#
0)#
b001 *#
1,#
1/#
02#
03#
16#
b001 8#
1:#
1=#
#550000000
b1111 !
b101 %
b011 &
b1111111100001111 *
b101011100101 +
b101 -
b011 .
b1111 1
b101 5
b011 6
b101 :
b110 ;
b001 >
b011 ?
1B
b11 D
b101 E
1H
1J
1L
1M
1O
1Q
b110 S
1T
1U
1W
0X
1Y
1\
1{
b001 }
1""
1%"
1-"
b011 ."
16"
17"
b1111111100001111 U"
b101011100101 V"
b101110001101 X"
b001011000001 Y"
1Z"
b11 \"
b101 ]"
1`"
1b"
1d"
1e"
1g"
1i"
b001 k"
1m"
1p"
1w"
b110 y"
1z"
1{"
1}"
0!#
1"#
1%#
1)#
b011 *#
12#
13#
#600000000
b0000 !
b0000 "
b1111 #
b000 %
b000 &
b101 '
b011 (
b0000000011111111 *
b000000101011 +
b000 -
b000 .
b101 /
b011 0
b0000 1
b0000 2
b1111 3
b000 5
b000 6
b101 7
b011 8
b000 :
b000 ;
b101 <
b110 =
b000 >
b000 ?
b001 @
b011 A
0B
b00 D
b000 E
0H
0J
0L
0M
0O
0P
0Q
b00 R
b000 S
0T
0U
0V
0W
0X
0Y
0Z
0[
0\
0]
1^
0_
b11 `
b101 a
0b
0c
1d
0e
1f
0g
1h
1i
0j
1k
1m
b110 o
1p
1q
1s
0t
1u
1x
0{
b000 }
0""
0%"
0,"
0-"
b000 ."
00"
03"
06"
07"
1:"
0;"
b001 <"
1>"
1A"
0D"
0E"
1I"
b011 J"
1R"
1S"
b0000000011111111 U"
b000000101011 V"
b000000101110 X"
b000000001011 Y"
0Z"
b00 \"
b000 ]"
0`"
0b"
0d"
0e"
0g"
0i"
b000 k"
0m"
0p"
0v"
0w"
b00 x"
b000 y"
0z"
0{"
0|"
0}"
0!#
0"#
0##
0$#
0%#
0&#
0(#
0)#
b000 *#
0,#
0/#
02#
03#
15#
06#
b11 7#
b101 8#
09#
0:#
1;#
0<#
1=#
0>#
1?#
1@#
0A#
1B#
1D#
0E#
b001 F#
1H#
1K#
0N#
0O#
1R#
b110 T#
1U#
1V#
1X#
0Y#
1Z#
1]#
1a#
b011 b#
1j#
1k#
#650000000
b1111 !
b101 %
b100 &
b1111000011111111 *
b101100101011 +
b101 -
b100 .
b1111 1
b101 5
b100 6
b101 :
b001 ;
b001 >
1B
b11 D
b101 E
1H
1J
1L
1M
1O
1Q
b001 S
1U
1X
1{
b001 }
1""
1%"
b1111000011111111 U"
b101100101011 V"
b101001101110 X"
b001000001011 Y"
1Z"
b11 \"
b101 ]"
1`"
1b"
1d"
1e"
1g"
1i"
b001 k"
1m"
1p"
1w"
b001 y"
1{"
1!#
#700000000
b0000 !
b1111 "
b000 %
b101 &
b011 '
b0000111111111111 *
b000101011011 +
b000 -
b101 .
b011 /
b0000 1
b1111 2
b000 5
b101 6
b011 7
b000 :
b101 ;
b110 <
b000 >
b001 ?
b011 @
0B
b00 D
b000 E
0H
0J
0L
0M
0O
1P
0Q
b11 R
b101 S
0T
0U
1V
0W
1X
0Y
1Z
1[
0\
1]
1_
b110 a
1b
1c
1e
0f
1g
1j
0{
b000 }
0""
0%"
1,"
0-"
b001 ."
10"
13"
06"
07"
1;"
b011 <"
1D"
1E"
b0000111111111111 U"
b000101011011 V"
b000101110110 X"
b000001011011 Y"
0Z"
b00 \"
b000 ]"
0`"
0b"
0d"
0e"
0g"
0i"
b000 k"
0m"
0p"
1v"
0w"
b11 x"
b101 y"
0z"
0{"
1|"
0}"
1!#
0"#
1##
1$#
0%#
1&#
1(#
0)#
b001 *#
1,#
1/#
02#
03#
16#
b110 8#
19#
1:#
1<#
0=#
1>#
1A#
1E#
b011 F#
1N#
1O#
#750000000
b1111 !
b101 %
b011 &
b1111111111111111 *
b101011011011 +
b101 -
b011 .
b1111 1
b101 5
b011 6
b101 :
b110 ;
b001 >
b011 ?
1B
b11 D
b101 E
1H
1J
1L
1M
1O
1Q
b110 S
1T
1U
1W
0X
1Y
1\
1{
b001 }
1""
1%"
1-"
b011 ."
16"
17"
b1111111111111111 U"
b101011011011 V"
b101110110110 X"
b001011011011 Y"
1Z"
b11 \"
b101 ]"
1`"
1b"
1d"
1e"
1g"
1i"
b001 k"
1m"
1p"
1w"
b110 y"
1z"
1{"
1}"
0!#
1"#
1%#
1)#
b011 *#
12#
13#
#800000000
b0000 !
b0000 "
b0000 #
b0000 $
b000 %
b000 &
b000 '
b000 (
b00 )
b0000000000000000 *
b000000000000 +
b00 ,
b000 -
b000 .
b000 /
b000 0
b0000 1
b0000 2
b0000 3
b0000 4
b000 5
b000 6
b000 7
b000 8
b00 9
b000 :
b000 ;
b000 <
b000 =
b000 >
b000 ?
b000 @
b000 A
0B
b00 D
b000 E
0H
0J
0L
0M
0O
0P
0Q
b00 R
b000 S
0T
0U
0V
0W
0X
0Y
0Z
0[
0\
0]
0^
0_
b00 `
b000 a
0b
0c
0d
0e
0f
0g
0h
0i
0j
0k
0l
0m
b00 n
b000 o
0p
0q
0r
0s
0t
0u
0v
0w
0x
0y
0{
b000 }
0""
0%"
0,"
0-"
b000 ."
00"
03"
06"
07"
0:"
0;"
b000 <"
0>"
0A"
0D"
0E"
0H"
0I"
b000 J"
0L"
0O"
0R"
0S"
b0000000000000000 U"
b000000000000 V"
b00 W"
b000000000000 X"
b000000000000 Y"
0Z"
b00 \"
b000 ]"
0`"
0b"
0d"
0e"
0g"
0i"
b000 k"
0m"
0p"
0v"
0w"
b00 x"
b000 y"
0z"
0{"
0|"
0}"
0!#
0"#
0##
0$#
0%#
0&#
0(#
0)#
b000 *#
0,#
0/#
02#
03#
05#
06#
b00 7#
b000 8#
09#
0:#
0;#
0<#
0=#
0>#
0?#
0@#
0A#
0B#
0D#
0E#
b000 F#
0H#
0K#
0N#
0O#
0Q#
0R#
b00 S#
b000 T#
0U#
0V#
0W#
0X#
0Y#
0Z#
0[#
0\#
0]#
0^#
0`#
0a#
b000 b#
0d#
0g#
0j#
0k#
