lab2/lib/test.vcd
$date
  Mon Oct 26 00:29:01 2020
$end
$version
  GHDL v0
$end
$timescale
  1 fs
$end
$var reg 4 ! a[0:3] $end
$var reg 4 " b[0:3] $end
$var reg 1 # a0 $end
$var reg 1 $ a1 $end
$var reg 1 % a2 $end
$var reg 1 & a3 $end
$var reg 1 ' b0 $end
$var reg 1 ( b1 $end
$var reg 1 ) b2 $end
$var reg 1 * b3 $end
$var reg 1 + strob $end
$scope module p1 $end
$var reg 4 , x[0:3] $end
$var reg 4 - y[0:3] $end
$var reg 1 . level_0 $end
$var reg 3 / level_1[0:2] $end
$var reg 4 0 level_2[0:3] $end
$var reg 6 1 level_3[0:5] $end
$var reg 3 2 level_4[0:2] $end
$scope module nex $end
$var reg 1 3 a $end
$var reg 1 4 b $end
$var reg 1 5 y $end
$upscope $end
$scope module inv_11 $end
$var reg 1 6 a $end
$var reg 1 7 y $end
$upscope $end
$scope module inv_12 $end
$var reg 1 8 a $end
$var reg 1 9 y $end
$upscope $end
$scope module inv_13 $end
$var reg 1 : a $end
$var reg 1 ; y $end
$upscope $end
$scope module inv_21 $end
$var reg 1 < a $end
$var reg 1 = y $end
$upscope $end
$scope module na3_21 $end
$var reg 1 > a $end
$var reg 1 ? b $end
$var reg 1 @ c $end
$var reg 1 A y $end
$upscope $end
$scope module inv_22 $end
$var reg 1 B a $end
$var reg 1 C y $end
$upscope $end
$scope module inv_23 $end
$var reg 1 D a $end
$var reg 1 E y $end
$upscope $end
$scope module inv_31 $end
$var reg 1 F a $end
$var reg 1 G y $end
$upscope $end
$scope module na3o2_31 $end
$var reg 1 H a $end
$var reg 1 I b $end
$var reg 1 J c $end
$var reg 1 K d $end
$var reg 1 L y $end
$upscope $end
$scope module noao2_31 $end
$var reg 1 M a $end
$var reg 1 N b $end
$var reg 1 O c $end
$var reg 1 P d $end
$var reg 1 Q y $end
$upscope $end
$scope module no2_31 $end
$var reg 1 R a $end
$var reg 1 S b $end
$var reg 1 T y $end
$upscope $end
$scope module inv_32 $end
$var reg 1 U a $end
$var reg 1 V y $end
$upscope $end
$scope module naoa2_31 $end
$var reg 1 W a $end
$var reg 1 X b $end
$var reg 1 Y c $end
$var reg 1 Z d $end
$var reg 1 [ y $end
$upscope $end
$scope module nao3_41 $end
$var reg 1 \ a $end
$var reg 1 ] b $end
$var reg 1 ^ c $end
$var reg 1 _ d $end
$var reg 1 ` y $end
$upscope $end
$scope module nao3_42 $end
$var reg 1 a a $end
$var reg 1 b b $end
$var reg 1 c c $end
$var reg 1 d d $end
$var reg 1 e y $end
$upscope $end
$scope module no4_41 $end
$var reg 1 f a $end
$var reg 1 g b $end
$var reg 1 h c $end
$var reg 1 i d $end
$var reg 1 j y $end
$upscope $end
$upscope $end
$enddefinitions $end
#0
b0000 !
bUUUU "
0#
0$
0%
0&
U'
U(
U)
U*
0+
b0000 ,
bUUUU -
U.
bUUU /
bUUUU 0
bUUUUUU 1
bUUU 2
03
04
U5
U6
U7
08
U9
U:
U;
U<
U=
U>
0?
0@
UA
UB
UC
0D
UE
UF
UG
UH
UI
0J
0K
UL
UM
UN
0O
UP
UQ
0R
0S
UT
UU
UV
0W
UX
UY
0Z
U[
U\
U]
U^
0_
U`
Ua
Ub
Uc
0d
Ue
0f
0g
Uh
Ui
Uj
#1000000
bU1U /
bUUU1 0
U7
19
U;
U=
1>
UC
1E
UG
1H
1M
1P
UV
1Y
1^
1c
#3000000
bU1U1 0
bUUU1UU 1
1A
1N
1T
1i
#4000000
bU1U1U1 1
1A
1L
1[
1\
1a
Ue
#5000000
bU0UU "
0(
bU0UU -
1.
bU101U1 1
15
1:
1L
0Q
1[
0b
Ue
#6000000
bU10 /
0;
0<
0F
#7000000
b11U1 0
b1101U1 1
1=
1G
1I
0Q
1]
#8000000
bU00U "
0)
bU00U -
bUU0 2
0j
#9000000
b0001 "
0'
1*
b0001 -
b010 2
06
0`
1e
#10000000
b110 /
17
1B
1U
#11000000
b1101 0
b110101 1
0C
1L
0V
0X
0h
#12000000
0`
#15000000
1[
#16000000
0j
#45000000
1+
#50000000
b0001 !
0+
b0001 ,
14
1?
1S
1Z
1d
#53000000
b110001 1
1A
0T
0i
#54000000
b0000 "
0*
b0000 -
b000 2
1[
0e
#55000000
0.
05
0:
#56000000
b111 /
1;
1<
1F
#57000000
b0101 0
b010001 1
0=
0G
0I
0]
#58000000
b0010 "
1)
b0010 -
b001 2
1j
#61000000
1L
#62000000
0`
#95000000
1+
#100000000
b0010 !
0+
b0010 ,
04
0?
1D
0S
0Z
0d
1f
#101000000
b0100 0
0E
0H
0M
0Y
0^
0c
#103000000
b010101 1
1A
1T
1i
#104000000
b0011 "
1*
b0011 -
b011 2
1[
1e
#105000000
b0001 "
0)
b0001 -
1.
b010 2
15
1:
1L
0Q
1[
1e
0j
#106000000
b1001 "
1'
b1001 -
b110 /
b110 2
16
0;
0<
0F
1`
#107000000
b010 /
b1100 0
b110101 1
07
1=
0B
1G
1I
0U
1]
#108000000
b1110 0
b110111 1
1C
1V
1X
1h
0j
#111000000
1L
#112000000
b0001 "
0'
b0001 -
b010 2
06
1[
0`
#113000000
b110 /
17
1B
1U
0j
#114000000
b1100 0
b110101 1
0C
0V
0X
0h
#118000000
1[
#119000000
0j
#145000000
1+
#150000000
b0011 !
0+
b0011 ,
14
1?
1S
1Z
1d
#153000000
b110001 1
1A
0T
0i
#154000000
1[
1e
#155000000
0.
05
0:
#156000000
b111 /
1;
1<
1F
#157000000
b0100 0
b010001 1
0=
0G
0I
0]
#158000000
0j
#161000000
1L
#162000000
b1001 "
1'
b1001 -
b110 2
16
1`
#163000000
b011 /
07
0B
0U
#164000000
b0110 0
b010011 1
1C
1V
1X
1h
#168000000
1[
#169000000
0j
#195000000
1+
#200000000
b0100 !
0+
b0100 ,
04
18
0?
0D
1J
0S
1W
0Z
1_
0d
0f
1g
#201000000
b001 /
b0111 0
09
0>
1E
1H
1M
0P
1Y
1^
1c
#203000000
b010111 1
1A
1T
1i
#204000000
b010110 1
1A
1L
0[
0a
1e
#205000000
b0001 "
0'
b0001 -
1.
b010 2
15
06
1:
1L
0Q
0[
0`
1e
0j
#206000000
b100 /
17
0;
0<
1B
0F
1U
0`
#207000000
b1101 0
b110100 1
1=
0C
1G
1I
0V
0X
1]
0h
#208000000
1e
0j
#211000000
b100101 1
0L
1[
0\
1a
#212000000
0j
#215000000
1e
#216000000
b1001 "
1'
b1001 -
b110 2
16
1`
#217000000
b000 /
07
0B
0U
#218000000
b1111 0
b100111 1
1C
1V
1X
1h
#222000000
b100110 1
0[
0a
#223000000
0j
#226000000
1e
#245000000
1+
#250000000
b0101 !
0+
b0101 ,
14
1?
1S
1Z
1d
#253000000
b100010 1
1A
0T
0i
#254000000
0[
1e
#255000000
0.
05
0:
#256000000
b001 /
1;
1<
1F
#257000000
b0111 0
b000010 1
0=
0G
0I
0]
#258000000
0j
#261000000
b010010 1
1L
1\
#266000000
b0001 "
0'
b0001 -
b010 2
06
0`
#267000000
b101 /
17
1B
1U
#268000000
b0101 0
b010000 1
0C
0V
0X
0h
#272000000
0[
#273000000
0j
#295000000
1+
#300000000
b0110 !
0+
b0110 ,
04
0?
1D
0S
0Z
0d
1f
#301000000
b0100 0
0E
0H
0M
0Y
0^
0c
#303000000
b010100 1
1A
1T
1i
#304000000
b010101 1
1[
1a
1e
#305000000
b0101 "
1(
b0101 -
1.
b011101 1
15
1:
1L
1Q
1[
1b
1e
0j
#306000000
b100 /
0;
0<
0F
0`
#307000000
b1100 0
b111101 1
1=
1G
1I
1]
#308000000
0j
#309000000
b0100 "
0*
b0100 -
b000 2
0e
#311000000
1L
#312000000
0`
#345000000
1+
#350000000
b0111 !
0+
b0111 ,
14
1?
1S
1Z
1d
#353000000
b111001 1
1A
0T
0i
#354000000
1[
0e
#355000000
0.
05
0:
#356000000
b101 /
1;
1<
1F
#357000000
b0100 0
b011001 1
0=
0G
0I
0]
#358000000
0j
#361000000
1L
#362000000
0`
#395000000
1+
#400000000
b1000 !
0+
b1000 ,
13
04
08
0?
1@
0D
0J
1K
1O
1R
0S
0W
0Z
0_
0d
0f
0g
#401000000
b111 /
b0101 0
19
1>
1E
1H
1M
1P
1Y
1^
1c
#403000000
1A
0T
#404000000
b0000 "
0(
b0000 -
b010001 1
1A
1L
0Q
1[
0b
0e
#405000000
b0010 "
1)
b0010 -
b001 2
05
1L
0Q
1[
1j
#406000000
0`
#408000000
b0011 "
1*
b0011 -
b011 2
1e
#445000000
1+
#450000000
b1001 !
0+
b1001 ,
14
1?
1S
1Z
1d
#453000000
b0001 0
0A
0N
0T
#454000000
b0010 "
0*
b0010 -
b001 2
1[
0e
#455000000
1.
15
1:
#456000000
b110 /
0;
0<
0F
#457000000
b1001 0
b110001 1
1=
1G
1I
0Q
1]
#461000000
b100001 1
0L
0\
#466000000
b1010 "
1'
b1010 -
b101 2
16
1`
#467000000
b010 /
07
0B
0U
#468000000
b1011 0
b100011 1
1C
1V
1X
1h
#472000000
1[
#473000000
b1000 "
0)
b1000 -
b100 2
0j
#495000000
1+
#500000000
b1010 !
0+
b1010 ,
04
0?
1D
0S
0Z
0d
1f
#501000000
b1010 0
0E
0H
0M
0Y
0^
0c
#503000000
b1110 0
1A
1N
0T
#504000000
b1001 "
1*
b1001 -
b110 2
1[
1e
#505000000
0.
b110011 1
05
0:
1L
1[
1\
1e
0j
#506000000
b011 /
1;
1<
1F
#507000000
b0110 0
b010011 1
0=
0G
0I
0Q
0]
#511000000
1L
#512000000
1`
#545000000
1+
#550000000
b1011 !
0+
b1011 ,
14
1?
1S
1Z
1d
#553000000
b0010 0
0A
0N
0T
#554000000
1[
1e
#555000000
1.
15
1:
#556000000
b010 /
0;
0<
0F
#557000000
b1101 "
1(
b1101 -
b1010 0
b111011 1
1=
1G
1I
1Q
1]
1b
#561000000
b1100 "
0*
b1100 -
b100 2
1L
0e
#562000000
b0100 "
0'
b0100 -
b000 2
06
0`
#563000000
b110 /
17
1B
1U
#564000000
b1000 0
b111001 1
0C
0V
0X
0h
#568000000
1[
#569000000
0j
#595000000
1+
#600000000
b1100 !
0+
b1100 ,
04
18
0?
0D
1J
0S
1W
0Z
1_
0d
0f
1g
#601000000
b100 /
b1001 0
09
0>
1E
1H
1M
0P
1Y
1^
1c
#603000000
b1101 0
1A
1N
0T
#604000000
1A
1[
0e
#605000000
b0000 "
0(
b0000 -
0.
b100001 1
05
0:
0L
0Q
1[
0\
0`
0b
0e
0j
#606000000
b101 /
1;
1<
1F
#607000000
b0101 0
b000001 1
0=
0G
0I
0Q
0]
#609000000
b0001 "
1*
b0001 -
b010 2
1e
#610000000
b1001 "
1'
b1001 -
b110 2
16
1`
#611000000
b001 /
b010001 1
07
0B
1L
0U
1\
#612000000
b0111 0
b010011 1
1C
1V
1X
1h
#616000000
b0001 "
0'
b0001 -
b010010 1
b010 2
06
0[
0`
0a
#617000000
b101 /
17
1B
1U
0j
#618000000
b0101 0
b010000 1
0C
0V
0X
0h
#620000000
1e
#622000000
b010001 1
1[
1a
#623000000
0j
#626000000
1e
#645000000
1+
#650000000
b1101 !
0+
b1101 ,
14
1?
1S
1Z
1d
#653000000
1A
0T
#654000000
b0000 "
0*
b0000 -
b010000 1
b000 2
0[
0a
0e
#655000000
1.
15
1:
#656000000
b100 /
0;
0<
0F
#657000000
b1101 0
b110000 1
1=
1G
1I
1]
#658000000
b0001 "
1*
b0001 -
b010 2
1e
#661000000
b100000 1
0L
0\
#666000000
b1001 "
1'
b1001 -
b110 2
16
1`
#667000000
b000 /
07
0B
0U
#668000000
b1111 0
b100010 1
1C
1V
1X
1h
#672000000
0[
#673000000
0j
#695000000
1+
#700000000
b1110 !
0+
b1110 ,
04
0?
1D
0S
0Z
0d
1f
#701000000
b1110 0
0E
0H
0M
0Y
0^
0c
#703000000
1A
0T
#704000000
0[
1e
#705000000
0.
b110010 1
05
0:
1L
0Q
0[
1\
1e
0j
#706000000
b001 /
1;
1<
1F
#707000000
b0110 0
b010010 1
0=
0G
0I
0]
#710000000
b0001 "
0'
b0001 -
b010 2
06
0`
#711000000
b101 /
17
1B
1L
1U
#712000000
b0100 0
b010000 1
0C
0V
0X
0`
0h
#716000000
b010001 1
1[
1a
#717000000
0j
#720000000
1e
#745000000
1+
#750000000
b1111 !
0+
b1111 ,
14
1?
1S
1Z
1d
#753000000
1A
0T
#754000000
1[
1e
#755000000
1.
15
1:
#756000000
b100 /
0;
0<
0F
#757000000
b1100 0
b110001 1
1=
1G
1I
1]
#761000000
1L
#762000000
0`
#795000000
1+
#800000000
b0000 !
0+
b0000 ,
03
04
08
0?
0@
0D
0J
0K
0O
0R
0S
0W
0Z
0_
0d
0f
0g
#801000000
b110 /
b1101 0
19
1>
1E
1H
1M
1P
1Y
1^
1c
#803000000
b110101 1
1A
1T
1i
#804000000
1A
1L
1[
1e
#805000000
15
1L
0Q
1[
0`
1e
#806000000
0`
#808000000
0j
#845000000
1+
